6 Simplified Template for DSI AT2 | R Notebook
…
# Do everything again, but in one long piece of tidying
weather_combined <- weather_sydney %>%
  rbind(weather_melbourne) %>%
  select(date, temp, hum) %>%
  filter(temp > 28, hum > 50) %>%
  mutate(my_weird_column = temp + hum)
  
# For more types of tidying to add to a chain like this, google dplyr tutorials  

#Look at what we have wrought!
weather_combined

## # A tibble: 46 x 4
##    date                 temp   hum my_weird_column
##    <dttm>              <dbl> <dbl>           <dbl>
##  1 2018-02-10 15:00:00    29    55              84
##  2 2018-02-10 15:30:00    29    55              84
##  3 2018-02-14 10:30:00    29    62              91
##  4 2018-02-14 11:00:00    29    58              87
##  5 2018-02-15 15:30:00    29    51              80
##  6 2018-02-15 16:00:00    29    55              84
##  7 2018-02-18 11:30:00    29    58              87
##  8 2018-02-18 12:30:00    29    55              84
##  9 2018-02-18 13:00:00    29    55              84
## 10 2018-02-18 13:30:00    29    58              87
## # ... with 36 more rows
…
